{
  "folders": {
    "expenditures_folder": "/home/luga/Dropbox/Git/dsi-challenge/Data/expenditures/",
    "ecommerce_folder": "/home/luga/Dropbox/Git/dsi-challenge/Data/ecommerce/"
  },
  "expenditures": {
    "run_preprocess": false,
    "threads": 7
  },
  "decks":{
  },
  "ecommerce":{
  }
}
